<?xml version="1.0" encoding="utf-8"?>
<!-- Generator: Adobe Illustrator 25.2.1, SVG Export Plug-In . SVG Version: 6.00 Build 0)  -->
<svg version="1.1" id="Capa_1" xmlns="http://www.w3.org/2000/svg" xmlns:xlink="http://www.w3.org/1999/xlink" x="0px" y="0px"
	 viewBox="0 0 1024 1024" style="enable-background:new 0 0 1024 1024;" xml:space="preserve">
<style type="text/css">
	.st0{fill:#4264A8;}
	.st1{fill:url(#SVGID_1_);}
	.st2{fill:#589BD9;}
</style>
<g>
	<g>
		<path class="st0" d="M844.26,543.44c2.9,2.89,4.34,6.36,4.34,10.41c0,4.15-1.42,7.65-4.26,10.5c-2.84,2.84-6.45,4.27-10.82,4.27
			c-4.26,0-7.82-1.39-10.66-4.18s-4.27-6.31-4.27-10.58c0-4.05,1.42-7.52,4.26-10.41c2.84-2.9,6.4-4.35,10.66-4.35
			C837.78,539.09,841.36,540.54,844.26,543.44z"/>
		<path class="st0" d="M919.45,532.85l24.11,5.25c-2.08,9.62-7,17.38-14.76,23.29s-16.84,8.86-27.22,8.86
			c-12.57,0-23.21-4.07-31.9-12.21s-13.04-18.61-13.04-31.4c0-12.68,4.34-23.12,13.03-31.33c8.69-8.2,19.32-12.3,31.9-12.3
			c10.17,0,19.13,2.9,26.9,8.69c7.76,5.79,12.8,13.44,15.09,22.96l-24.6,5.91c-1.09-4.81-3.17-8.45-6.23-10.91
			s-6.78-3.69-11.15-3.69c-5.9,0-10.66,1.94-14.27,5.82c-3.61,3.88-5.41,8.83-5.41,14.84c0,6.12,1.81,11.1,5.42,14.92
			c3.61,3.83,8.36,5.74,14.27,5.74C910.76,547.29,916.72,542.47,919.45,532.85z"/>
		<path class="st0" d="M982.25,539.73c0,2.19,0.71,3.94,2.13,5.25c1.42,1.31,3.33,1.97,5.74,1.97c1.97,0,5.14-0.77,9.51-2.3
			l4.1,20.5c-7,3.39-13.45,5.08-19.35,5.08c-8.53,0-15.39-2.62-20.58-7.87c-5.2-5.25-7.79-12.13-7.79-20.66L956,441.5l26.24,0
			L982.25,539.73z"/>
	</g>
	<g>
		<path class="st0" d="M285.58,566.48l-26.24,0l0-7.05c-6.56,6.34-15.08,9.51-25.58,9.52c-11.15,0-20.64-4.07-28.46-12.21
			c-7.82-8.15-11.73-18.61-11.73-31.4c0-12.68,3.91-23.12,11.72-31.33c7.82-8.2,17.3-12.3,28.45-12.3c10.5,0,19.02,3.17,25.58,9.51
			l-0.01-51l26.24,0L285.58,566.48z M253.35,540.66c3.99-3.99,5.99-9.1,5.98-15.33c0-6.12-2-11.21-5.99-15.25
			c-3.99-4.04-8.72-6.06-14.18-6.06c-5.8,0-10.55,2-14.27,5.98c-3.72,3.99-5.58,9.1-5.58,15.34c0,6.34,1.87,11.48,5.58,15.42
			c3.72,3.93,8.47,5.9,14.27,5.9C244.63,546.64,249.36,544.65,253.35,540.66z"/>
		<path class="st0" d="M385.27,532.03l-60.35,0.01c1.09,4.92,3.22,8.8,6.4,11.64c3.17,2.84,6.94,4.26,11.31,4.26
			c8.2,0,14.05-3.17,17.55-9.51l23.29,4.76c-3.5,8.53-8.77,14.95-15.82,19.27c-7.05,4.32-15.38,6.48-25.01,6.48
			c-12.13,0-22.41-4.07-30.83-12.21c-8.42-8.15-12.63-18.61-12.63-31.4c0-12.68,4.2-23.12,12.62-31.33
			c8.42-8.2,18.75-12.3,30.99-12.3c11.92,0,21.92,3.99,30.02,11.97c8.09,7.98,12.25,18.53,12.47,31.65L385.27,532.03z
			 M332.13,506.45c-3.28,2.29-5.52,5.47-6.72,9.51l33.95,0c-1.2-4.26-3.28-7.49-6.23-9.67c-2.95-2.19-6.39-3.28-10.33-3.28
			C338.97,503.01,335.41,504.16,332.13,506.45z"/>
		<path class="st0" d="M423.97,538.42c0,2.19,0.71,3.94,2.13,5.25s3.33,1.97,5.74,1.97c1.97,0,5.14-0.77,9.51-2.3l4.1,20.5
			c-7,3.39-13.45,5.08-19.35,5.08c-8.53,0-15.39-2.62-20.58-7.87c-5.2-5.25-7.8-12.13-7.8-20.66l-0.01-100.2l26.24,0L423.97,538.42z
			"/>
		<path class="st0" d="M522.93,490.2c6.72,5.69,10.09,13.72,10.09,24.11l0.01,52.15l-25.26,0l0-6.07
			c-6.67,5.69-14.87,8.53-24.6,8.53c-9.18,0-16.59-2.46-22.22-7.38s-8.44-11.42-8.44-19.51c0-8.2,3-14.68,9.02-19.44
			c6.01-4.76,14.43-7.13,25.26-7.13l20.99,0l0-1.64c0-3.39-1.07-6.15-3.2-8.28s-4.95-3.2-8.45-3.2c-7.98,0-12.57,3.44-13.78,10.34
			l-24.76-5.08c1.86-7.98,6.15-14.3,12.87-18.94c6.72-4.64,15-6.97,24.85-6.97C506.99,481.67,516.2,484.51,522.93,490.2z
			 M502.67,544.97c3.39-2.84,5.09-6.5,5.08-10.99l0-1.8l-18.04,0c-3.29,0-5.88,0.79-7.79,2.38c-1.91,1.59-2.87,3.64-2.87,6.15
			c0,2.62,1.04,4.7,3.12,6.23c2.08,1.53,4.87,2.29,8.36,2.29C495.24,549.24,499.29,547.82,502.67,544.97z"/>
		<path class="st0" d="M624.1,491.08c5.85,6.29,8.78,14.57,8.78,24.84l0.01,50.51l-26.08,0l-0.01-44.94c0-4.81-1.31-8.72-3.93-11.72
			c-2.63-3-6.02-4.51-10.17-4.51c-5.35,0-9.54,1.88-12.54,5.66c-3.01,3.77-4.51,9.54-4.51,17.3l0,38.21l-26.24,0l-0.01-82.33
			l26.24,0l0,7.87c6.55-6.89,14.97-10.34,25.25-10.34C610.52,481.66,618.25,484.8,624.1,491.08z"/>
		<path class="st0" d="M711.76,562.82c-7.55,4.05-15.04,6.07-22.47,6.07c-10.39,0-18.45-2.79-24.19-8.36
			c-5.74-5.58-8.61-13.72-8.61-24.43l0-31.16l-14.93,0l0-20.83l14.93,0l0-27.55l26.24,0l0,27.55l24.27,0l0,20.83l-24.27,0l0,28.53
			c0,7.98,3.67,11.97,10.99,11.97c4.15,0,8.15-1.09,11.97-3.28L711.76,562.82z"/>
		<path class="st0" d="M800.8,531.98l-60.35,0.01c1.09,4.92,3.22,8.8,6.4,11.64c3.17,2.84,6.94,4.26,11.31,4.26
			c8.2,0,14.05-3.17,17.55-9.51l23.29,4.76c-3.5,8.53-8.77,14.95-15.82,19.27c-7.05,4.32-15.38,6.48-25.01,6.48
			c-12.13,0-22.41-4.07-30.83-12.21c-8.42-8.15-12.63-18.61-12.63-31.4c0-12.68,4.2-23.12,12.62-31.33
			c8.42-8.2,18.75-12.3,30.99-12.3c11.92,0,21.92,3.99,30.02,11.97s12.25,18.53,12.47,31.65L800.8,531.98z M747.66,506.41
			c-3.28,2.29-5.52,5.47-6.72,9.51l33.95,0c-1.2-4.26-3.28-7.49-6.23-9.67c-2.95-2.19-6.39-3.28-10.33-3.28
			C754.49,502.96,750.94,504.11,747.66,506.41z"/>
	</g>
	<g>
		<linearGradient id="SVGID_1_" gradientUnits="userSpaceOnUse" x1="222.1641" y1="352.2232" x2="-41.5171" y2="523.7528">
			<stop  offset="0" style="stop-color:#589BD9"/>
			<stop  offset="1" style="stop-color:#373AC3"/>
		</linearGradient>
		<path class="st1" d="M129.66,510.31c-53.98,0.01-97.91-43.91-97.92-97.89c-0.01-53.99,43.91-97.91,97.9-97.92
			s97.91,43.91,97.92,97.9C227.56,466.38,183.64,510.31,129.66,510.31z M129.64,330.68c-45.07,0.01-81.73,36.67-81.72,81.74
			c0.01,45.07,36.67,81.73,81.74,81.72c45.07-0.01,81.73-36.67,81.72-81.74C211.38,367.33,174.71,330.67,129.64,330.68z"/>
	</g>
	<g>
		<rect x="126.53" y="338.38" class="st2" width="6.18" height="12.76"/>
	</g>
	<g>
		
			<rect x="79.79" y="357.74" transform="matrix(0.707 -0.7072 0.7072 0.707 -233.2216 165.2901)" class="st2" width="6.18" height="12.76"/>
	</g>
	<g>
		
			<rect x="60.43" y="404.49" transform="matrix(-1.152674e-04 -1 1 -1.152674e-04 -347.3382 474.4388)" class="st2" width="6.18" height="12.76"/>
	</g>
	<g>
		
			<rect x="173.28" y="357.73" transform="matrix(0.7072 0.707 -0.707 0.7072 309.0785 -18.0796)" class="st2" width="6.18" height="12.76"/>
	</g>
	<g>
		<path class="st0" d="M129.72,432.77l20,50.88c10.39-2.93,19.85-8.04,27.85-14.85l-27.35-65.43h-0.01
			c-3.06-8.41-11.11-14.43-20.58-14.43c-9.63,0-17.78,6.22-20.73,14.85L40.92,566.51l36.05,0l52.71-133.73
			C129.69,432.78,129.7,432.77,129.72,432.77z"/>
	</g>
</g>
</svg>
